\beamer@endinputifotherversion {3.24pt}
\headcommand {\slideentry {0}{0}{1}{1/1}{}{0}}
\headcommand {\beamer@framepages {1}{1}}
\headcommand {\sectionentry {1}{Introduction}{2}{Introduction}{0}}
\headcommand {\beamer@sectionpages {1}{1}}
\headcommand {\beamer@subsectionpages {1}{1}}
\headcommand {\slideentry {1}{0}{2}{2/2}{}{0}}
\headcommand {\beamer@framepages {2}{2}}
\headcommand {\slideentry {1}{0}{3}{3/5}{}{0}}
\headcommand {\beamer@framepages {3}{5}}
\headcommand {\slideentry {1}{0}{4}{6/9}{}{0}}
\headcommand {\beamer@framepages {6}{9}}
\headcommand {\slideentry {1}{0}{5}{10/13}{}{0}}
\headcommand {\beamer@framepages {10}{13}}
\headcommand {\slideentry {1}{0}{6}{14/14}{}{0}}
\headcommand {\beamer@framepages {14}{14}}
\headcommand {\sectionentry {2}{Design and data}{15}{Design and data}{0}}
\headcommand {\beamer@sectionpages {2}{14}}
\headcommand {\beamer@subsectionpages {2}{14}}
\headcommand {\slideentry {2}{0}{7}{15/15}{}{0}}
\headcommand {\beamer@framepages {15}{15}}
\headcommand {\slideentry {2}{0}{8}{16/16}{}{0}}
\headcommand {\beamer@framepages {16}{16}}
\headcommand {\slideentry {2}{0}{9}{17/17}{}{0}}
\headcommand {\beamer@framepages {17}{17}}
\headcommand {\slideentry {2}{0}{10}{18/18}{}{0}}
\headcommand {\beamer@framepages {18}{18}}
\headcommand {\slideentry {2}{0}{11}{19/19}{}{0}}
\headcommand {\beamer@framepages {19}{19}}
\headcommand {\slideentry {2}{0}{12}{20/20}{}{0}}
\headcommand {\beamer@framepages {20}{20}}
\headcommand {\slideentry {2}{0}{13}{21/21}{}{0}}
\headcommand {\beamer@framepages {21}{21}}
\headcommand {\slideentry {2}{0}{14}{22/22}{}{0}}
\headcommand {\beamer@framepages {22}{22}}
\headcommand {\slideentry {2}{0}{15}{23/23}{}{0}}
\headcommand {\beamer@framepages {23}{23}}
\headcommand {\slideentry {2}{0}{16}{24/24}{}{0}}
\headcommand {\beamer@framepages {24}{24}}
\headcommand {\slideentry {2}{0}{17}{25/25}{}{0}}
\headcommand {\beamer@framepages {25}{25}}
\headcommand {\sectionentry {3}{Results - Expenditure}{26}{Results - Expenditure}{0}}
\headcommand {\beamer@sectionpages {15}{25}}
\headcommand {\beamer@subsectionpages {15}{25}}
\headcommand {\slideentry {3}{0}{18}{26/26}{}{0}}
\headcommand {\beamer@framepages {26}{26}}
\headcommand {\slideentry {3}{0}{19}{27/27}{}{0}}
\headcommand {\beamer@framepages {27}{27}}
\headcommand {\slideentry {3}{0}{20}{28/28}{}{0}}
\headcommand {\beamer@framepages {28}{28}}
\headcommand {\slideentry {3}{0}{21}{29/29}{}{0}}
\headcommand {\beamer@framepages {29}{29}}
\headcommand {\slideentry {3}{0}{22}{30/30}{}{0}}
\headcommand {\beamer@framepages {30}{30}}
\headcommand {\sectionentry {4}{Results - Test scores}{31}{Results - Test scores}{0}}
\headcommand {\beamer@sectionpages {26}{30}}
\headcommand {\beamer@subsectionpages {26}{30}}
\headcommand {\slideentry {4}{0}{23}{31/31}{}{0}}
\headcommand {\beamer@framepages {31}{31}}
\headcommand {\slideentry {4}{0}{24}{32/32}{}{0}}
\headcommand {\beamer@framepages {32}{32}}
\headcommand {\slideentry {4}{0}{25}{33/33}{}{0}}
\headcommand {\beamer@framepages {33}{33}}
\headcommand {\slideentry {4}{0}{26}{34/34}{}{0}}
\headcommand {\beamer@framepages {34}{34}}
\headcommand {\slideentry {4}{0}{27}{35/35}{}{0}}
\headcommand {\beamer@framepages {35}{35}}
\headcommand {\slideentry {4}{0}{28}{36/36}{}{0}}
\headcommand {\beamer@framepages {36}{36}}
\headcommand {\sectionentry {5}{Mechanisms}{37}{Mechanisms}{0}}
\headcommand {\beamer@sectionpages {31}{36}}
\headcommand {\beamer@subsectionpages {31}{36}}
\headcommand {\slideentry {5}{0}{29}{37/37}{}{0}}
\headcommand {\beamer@framepages {37}{37}}
\headcommand {\slideentry {5}{0}{30}{38/38}{}{0}}
\headcommand {\beamer@framepages {38}{38}}
\headcommand {\sectionentry {6}{Heterogeneity}{39}{Heterogeneity}{0}}
\headcommand {\beamer@sectionpages {37}{38}}
\headcommand {\beamer@subsectionpages {37}{38}}
\headcommand {\slideentry {6}{0}{31}{39/39}{}{0}}
\headcommand {\beamer@framepages {39}{39}}
\headcommand {\slideentry {6}{0}{32}{40/40}{}{0}}
\headcommand {\beamer@framepages {40}{40}}
\headcommand {\slideentry {6}{0}{33}{41/41}{}{0}}
\headcommand {\beamer@framepages {41}{41}}
\headcommand {\slideentry {6}{0}{34}{42/42}{}{0}}
\headcommand {\beamer@framepages {42}{42}}
\headcommand {\slideentry {6}{0}{35}{43/43}{}{0}}
\headcommand {\beamer@framepages {43}{43}}
\headcommand {\slideentry {6}{0}{36}{44/44}{}{0}}
\headcommand {\beamer@framepages {44}{44}}
\headcommand {\slideentry {6}{0}{37}{45/45}{}{0}}
\headcommand {\beamer@framepages {45}{45}}
\headcommand {\slideentry {6}{0}{38}{46/46}{}{0}}
\headcommand {\beamer@framepages {46}{46}}
\headcommand {\partentry {\translate {Appendix}}{1}}
\headcommand {\beamer@partpages {1}{46}}
\headcommand {\beamer@sectionpages {39}{46}}
\headcommand {\beamer@subsectionpages {39}{46}}
\headcommand {\beamer@appendixpages {47}}
\headcommand {\slideentry {6}{0}{39}{47/47}{}{1}}
\headcommand {\beamer@framepages {47}{47}}
\headcommand {\slideentry {6}{0}{40}{48/48}{}{1}}
\headcommand {\beamer@framepages {48}{48}}
\headcommand {\slideentry {6}{0}{41}{49/49}{}{1}}
\headcommand {\beamer@framepages {49}{49}}
\headcommand {\slideentry {6}{0}{42}{50/50}{}{1}}
\headcommand {\beamer@framepages {50}{50}}
\headcommand {\slideentry {6}{0}{43}{51/51}{}{1}}
\headcommand {\beamer@framepages {51}{51}}
\headcommand {\slideentry {6}{0}{44}{52/52}{}{1}}
\headcommand {\beamer@framepages {52}{52}}
\headcommand {\slideentry {6}{0}{45}{53/53}{}{1}}
\headcommand {\beamer@framepages {53}{53}}
\headcommand {\slideentry {6}{0}{46}{54/54}{}{1}}
\headcommand {\beamer@framepages {54}{54}}
\headcommand {\slideentry {6}{0}{47}{55/55}{}{1}}
\headcommand {\beamer@framepages {55}{55}}
\headcommand {\slideentry {6}{0}{48}{56/56}{}{1}}
\headcommand {\beamer@framepages {56}{56}}
\headcommand {\slideentry {6}{0}{49}{57/57}{}{1}}
\headcommand {\beamer@framepages {57}{57}}
\headcommand {\beamer@partpages {47}{57}}
\headcommand {\beamer@subsectionpages {47}{57}}
\headcommand {\beamer@sectionpages {47}{57}}
\headcommand {\beamer@documentpages {57}}
\headcommand {\def \inserttotalframenumber {49}}
