\BOOKMARK [2][]{Outline0.1}{Introduction}{}% 1
\BOOKMARK [2][]{Outline0.2}{Design and data}{}% 2
\BOOKMARK [2][]{Outline0.3}{Results - Expenditure}{}% 3
\BOOKMARK [2][]{Outline0.4}{Results - Test scores}{}% 4
\BOOKMARK [2][]{Outline0.5}{Mechanisms}{}% 5
\BOOKMARK [2][]{Outline0.6}{Heterogeneity}{}% 6
\BOOKMARK [1][]{Outline1}{Appendix}{}% 7
