\relax 
\providecommand\hyper@newdestlabel[2]{}
\providecommand\HyperFirstAtBeginDocument{\AtBeginDocument}
\HyperFirstAtBeginDocument{\ifx\hyper@anchor\@undefined
\global\let\oldcontentsline\contentsline
\gdef\contentsline#1#2#3#4{\oldcontentsline{#1}{#2}{#3}}
\global\let\oldnewlabel\newlabel
\gdef\newlabel#1#2{\newlabelxx{#1}#2}
\gdef\newlabelxx#1#2#3#4#5#6{\oldnewlabel{#1}{{#2}{#3}}}
\AtEndDocument{\ifx\hyper@anchor\@undefined
\let\contentsline\oldcontentsline
\let\newlabel\oldnewlabel
\fi}
\fi}
\global\let\hyper@last\relax 
\gdef\HyperFirstAtBeginDocument#1{#1}
\providecommand\HyField@AuxAddToFields[1]{}
\providecommand\HyField@AuxAddToCoFields[2]{}
\citation{Kremer2003}
\citation{Kremer2003}
\citation{Leeb2005}
\citation{Leeb2006}
\citation{Leeb2008}
\select@language{english}
\@writefile{toc}{\select@language{english}}
\@writefile{lof}{\select@language{english}}
\@writefile{lot}{\select@language{english}}
\@writefile{toc}{\contentsline {section}{\numberline {1}Introduction}{1}{section.1}}
\newlabel{eq:inter}{{1}{1}{Introduction}{equation.1.1}{}}
\newlabel{eq:sep}{{2}{1}{Introduction}{equation.1.2}{}}
\citation{McCloskey2012}
\citation{McCloskey2012}
\citation{McCloskey2012}
\citation{McCloskey2012}
\citation{McCloskey2012}
\citation{McCloskey2012}
\citation{McCloskey2012}
\@writefile{lot}{\contentsline {table}{\numberline {1}{\ignorespaces Effect on test scores \relax }}{3}{table.caption.1}}
\providecommand*\caption@xref[2]{\@setref\relax\@undefined{#1}}
\newlabel{tab:interactions}{{1}{3}{Effect on test scores \relax }{table.caption.1}{}}
\@writefile{toc}{\contentsline {subsubsection}{\numberline {1.0.1}Conservative model selection}{3}{subsubsection.1.0.1}}
\citation{McCloskey2012}
\@writefile{lot}{\contentsline {table}{\numberline {2}{\ignorespaces Effect on test scores \relax }}{4}{table.caption.2}}
\newlabel{tab:corrections_conserv}{{2}{4}{Effect on test scores \relax }{table.caption.2}{}}
\@writefile{toc}{\contentsline {subsubsection}{\numberline {1.0.2}Consistent model selection}{4}{subsubsection.1.0.2}}
\bibstyle{apacite}
\bibdata{TanBib}
\bibcite{Kremer2003}{\citeauthoryear {Kremer}{Kremer}{{\APACyear {2003}}}}
\APACbibcite{Kremer2003}{\citeauthoryear {Kremer}{Kremer}{{\APACyear {2003}}}}
\bibcite{Leeb2005}{\citeauthoryear {Leeb\ \BBA{} P{\"o}tscher}{Leeb\ \BBA{} P{\"o}tscher}{{\APACyear {2005}}}}
\APACbibcite{Leeb2005}{\citeauthoryear {Leeb\ \BBA{} P{\"o}tscher}{Leeb\ \BBA{} P{\"o}tscher}{{\APACyear {2005}}}}
\bibcite{Leeb2006}{\citeauthoryear {Leeb\ \BBA{} P{\"o}tscher}{Leeb\ \BBA{} P{\"o}tscher}{{\APACyear {2006}}}}
\APACbibcite{Leeb2006}{\citeauthoryear {Leeb\ \BBA{} P{\"o}tscher}{Leeb\ \BBA{} P{\"o}tscher}{{\APACyear {2006}}}}
\bibcite{Leeb2008}{\citeauthoryear {Leeb\ \BBA{} P{\"o}tscher}{Leeb\ \BBA{} P{\"o}tscher}{{\APACyear {2008}}}}
\APACbibcite{Leeb2008}{\citeauthoryear {Leeb\ \BBA{} P{\"o}tscher}{Leeb\ \BBA{} P{\"o}tscher}{{\APACyear {2008}}}}
\bibcite{McCloskey2012}{\citeauthoryear {McCloskey}{McCloskey}{{\APACyear {2012}}}}
\APACbibcite{McCloskey2012}{\citeauthoryear {McCloskey}{McCloskey}{{\APACyear {2012}}}}
\@writefile{lot}{\contentsline {table}{\numberline {3}{\ignorespaces Effect on test scores \relax }}{5}{table.caption.3}}
\newlabel{tab:corrections_consistent}{{3}{5}{Effect on test scores \relax }{table.caption.3}{}}
\@writefile{toc}{\contentsline {section}{References}{5}{section*.4}}
