="CG*Covariate",="0.0013",="0.0000039",="0.22**",="-0.11",="-4.15",="-0.0071",="-0.12"
="",="(0.0021)",="(0.0000086)",="(0.098)",="(0.076)",="(4.61)",="(0.22)",="(0.17)"
="COD*Covariate",="0.0018",="0.000011",="-0.026",="-0.033",="12.9**",="-0.13",="0.14"
="",="(0.0043)",="(0.000015)",="(0.10)",="(0.092)",="(6.55)",="(0.22)",="(0.21)"
="Combo*Covariate",="0.0063",="-0.000011",="0.12",="-0.081",="6.92",="-0.44**",="0.11"
="",="(0.0045)",="(0.000015)",="(0.12)",="(0.11)",="(8.04)",="(0.19)",="(0.24)"
="Covariate",="-0.0022",="0.0000020",="-0.092",="0.030",="7.35**",="0.28*",="0.25*"
="",="(0.0017)",="(0.0000073)",="(0.059)",="(0.051)",="(3.12)",="(0.16)",="(0.14)"
="N. of obs.",="9141",="9141",="9141",="9141",="9141",="9141",="9141"
