="",="Z_kiingereza_T7",="Z_kiingereza_T7",="Z_kiingereza_T7",="Z_kiingereza_T7",="Z_kiingereza_T7",="Z_kiingereza_T7",="Z_kiingereza_T7",="Z_kiingereza_T7"

="CG*Covariate",="-0.0044",="-0.00074",="-0.11",="0.94",="-0.46",="0.014",="-0.013",=""
="",="(0.029)",="(0.0042)",="(0.40)",="(0.68)",="(0.60)",="(0.096)",="(0.16)",=""

="COD*Covariate",="0.018",="0.0096",="-0.42",="-0.20",="-0.52",="0.035",="-0.36*",=""
="",="(0.024)",="(0.022)",="(0.44)",="(0.49)",="(0.34)",="(0.089)",="(0.20)",=""

="Combo*Covariate",="-0.0093",="0.025",="-0.13",="-0.30",="0.47",="0.030",="-0.16",=""
="",="(0.023)",="(0.017)",="(0.44)",="(0.48)",="(0.44)",="(0.11)",="(0.15)",=""

="Covariate",="0.0083",="-0.0047**",="0.42",="-0.13",="-0.084",="0.014",="0.22",=""
="",="(0.015)",="(0.0024)",="(0.28)",="(0.25)",="(0.26)",="(0.059)",="(0.14)",=""

="N. of obs.",="9436",="9436",="9436",="9436",="9436",="9436",="9436",="9138"
