="CG*Covariate",="-0.012",="0.0023",="-0.0053"
="",="(0.057)",="(0.021)",="(0.042)"
="COD*Covariate",="-0.049",="-0.036",="-0.023"
="",="(0.058)",="(0.023)",="(0.041)"
="Combo*Covariate",="-0.088",="-0.043**",="-0.059"
="",="(0.060)",="(0.021)",="(0.045)"
="Covariate",="-0.046",="0.026**",="0.27***"
="",="(0.033)",="(0.012)",="(0.029)"
="N. of obs.",="9436",="9436",="9436"
