="",="Z_sayansi_T7",="Z_sayansi_T7",="Z_sayansi_T7",="Z_sayansi_T7",="Z_sayansi_T7",="Z_sayansi_T7",="Z_sayansi_T7",="Z_sayansi_T7"

="CG*Covariate",="0.012",="0.0095*",="0.38",="0.82",="-0.11",="0.11",="-0.20",=""
="",="(0.025)",="(0.0058)",="(0.45)",="(0.85)",="(0.56)",="(0.12)",="(0.17)",=""

="COD*Covariate",="-0.0071",="0.027",="0.31",="0.45",="-0.028",="0.091",="-0.056",=""
="",="(0.031)",="(0.021)",="(0.53)",="(0.76)",="(0.48)",="(0.11)",="(0.14)",=""

="Combo*Covariate",="-0.042*",="0.010",="-0.015",="0.12",="0.89",="-0.069",="-0.12",=""
="",="(0.023)",="(0.021)",="(0.44)",="(0.65)",="(0.55)",="(0.11)",="(0.14)",=""

="Covariate",="0.027",="-0.0014",="0.68**",="0.23",="-0.63**",="0.047",="-0.023",=""
="",="(0.017)",="(0.0016)",="(0.30)",="(0.47)",="(0.28)",="(0.066)",="(0.12)",=""

="N. of obs.",="9436",="9436",="9436",="9436",="9436",="9436",="9436",="9138"
