="CG*Covariate",="-0.00036",="0.0000058",="-0.011",="0.052",="4.00",="-0.027",="0.037"
="",="(0.0021)",="(0.0000081)",="(0.11)",="(0.083)",="(4.29)",="(0.16)",="(0.12)"
="COD*Covariate",="0.0048",="-0.000011",="-0.036",="0.13",="0.053",="0.066",="-0.018"
="",="(0.0061)",="(0.000010)",="(0.11)",="(0.097)",="(4.41)",="(0.14)",="(0.098)"
="Combo*Covariate",="0.0020",="0.0000072",="0.034",="0.077",="6.20",="-0.18",="0.071"
="",="(0.0021)",="(0.000013)",="(0.13)",="(0.096)",="(4.35)",="(0.13)",="(0.093)"
="Covariate",="-0.0011",="0.0000016",="0.088",="-0.097*",="7.94***",="0.068",="0.18***"
="",="(0.0015)",="(0.0000068)",="(0.071)",="(0.054)",="(2.55)",="(0.11)",="(0.060)"
="N. of obs.",="9141",="9141",="9141",="9141",="9141",="9141",="9141"
