="",="Total Expenditure",="Fees",="Textbooks",="Other books",="Supplies",="Uniforms",="Tutoring",="Transport",="Others"
="CG",="-1272.5",="-113.2",="-18.0",="-20.8",="348.6",="-257.9",="-1053.3",="-140.8",="-17.0"
="",="(1550.0)",="(632.2)",="(78.0)",="(45.1)",="(255.9)",="(613.9)",="(809.0)",="(139.4)",="(217.4)"
="COD",="-208.3",="67.0",="0.36",="-16.7",="188.1",="-225.2",="-331.4",="277.4",="-168.0"
="",="(1460.8)",="(451.1)",="(103.2)",="(48.7)",="(222.7)",="(614.5)",="(775.6)",="(293.0)",="(244.6)"
="Combo",="247.6",="-371.4",="164.1",="54.6",="-550.7",="342.6",="730.8",="-98.8",="-23.5"
="",="(2178.3)",="(805.4)",="(138.1)",="(72.8)",="(383.7)",="(978.0)",="(1267.9)",="(387.4)",="(330.5)"
="N. of obs.",="3399",="3399",="3399",="3399",="3399",="3399",="3399",="3399",="3399"
="Mean control",="26296.5",="3241.0",="268.5",="138.4",="4992.3",="11286.7",="4603.0",="239.3",="1527.3"
="Combo-COD-CG",="1728.5",="-325.1",="181.8",="92.1",="-1087.4",="825.7",="2115.5",="-235.5",="161.5"
="p-value ($H_0$=Combo-COD-CG=0)",="0.69",="0.84",="0.50",="0.52",="0.14",="0.65",="0.38",="0.73",="0.82"
="Combo-CG",="1520.2",="-258.2",="182.1",="75.4",="-899.3",="600.5",="1784.1",="42.0",="-6.49"
="p-value ($H_0$=Combo-CG=0)",="0.66",="0.85",="0.35",="0.48",="0.13",="0.68",="0.35",="0.92",="0.99"
