\relax 
\providecommand\hyper@newdestlabel[2]{}
\providecommand\HyperFirstAtBeginDocument{\AtBeginDocument}
\HyperFirstAtBeginDocument{\ifx\hyper@anchor\@undefined
\global\let\oldcontentsline\contentsline
\gdef\contentsline#1#2#3#4{\oldcontentsline{#1}{#2}{#3}}
\global\let\oldnewlabel\newlabel
\gdef\newlabel#1#2{\newlabelxx{#1}#2}
\gdef\newlabelxx#1#2#3#4#5#6{\oldnewlabel{#1}{{#2}{#3}}}
\AtEndDocument{\ifx\hyper@anchor\@undefined
\let\contentsline\oldcontentsline
\let\newlabel\oldnewlabel
\fi}
\fi}
\global\let\hyper@last\relax 
\gdef\HyperFirstAtBeginDocument#1{#1}
\providecommand\HyField@AuxAddToFields[1]{}
\providecommand\HyField@AuxAddToCoFields[2]{}
\citation{Lucas2012}
\citation{Grogan2009}
\citation{Valente2015}
\citation{Uwezo2013}
\select@language{english}
\@writefile{toc}{\select@language{english}}
\@writefile{lof}{\select@language{english}}
\@writefile{lot}{\select@language{english}}
\@writefile{toc}{\contentsline {section}{\numberline {1}Introduction}{1}{section.1}}
\citation{Murnane2014}
\citation{Uwezo2012}
\citation{WorldBank2012}
\citation{CRES2013}
\citation{Muralidharan2011}
\citation{Fryer2013}
\citation{Glewwe2010}
\citation{Muralidharan2011}
\citation{Fryer2013}
\citation{Glewwe2010}
\citation{Sabarwal2014}
\@writefile{toc}{\contentsline {section}{\numberline {2}Theoretical framework}{4}{section.2}}
\@writefile{lof}{\contentsline {figure}{\numberline {1}{\ignorespaces The effect of an increase in incentives on teacher effort\relax }}{5}{figure.caption.1}}
\providecommand*\caption@xref[2]{\@setref\relax\@undefined{#1}}
\newlabel{fig:increase_incentives}{{1}{5}{The effect of an increase in incentives on teacher effort\relax }{figure.caption.1}{}}
\@writefile{lof}{\contentsline {figure}{\numberline {2}{\ignorespaces The effect of an increase in inputs on teacher effort\relax }}{6}{figure.caption.2}}
\newlabel{fig:increase_inputs}{{2}{6}{The effect of an increase in inputs on teacher effort\relax }{figure.caption.2}{}}
\citation{Twawez2010}
\citation{WorldBank2012}
\citation{Twawez2013}
\citation{Valente2015}
\citation{WorldBank2012}
\@writefile{toc}{\contentsline {section}{\numberline {3}Experimental design}{7}{section.3}}
\@writefile{toc}{\contentsline {subsection}{\numberline {3.1}Context}{7}{subsection.3.1}}
\citation{WorldBank2012}
\citation{WorldBank2012}
\citation{Uwezo2013}
\citation{Jones2014}
\@writefile{toc}{\contentsline {subsection}{\numberline {3.2}Sampling and design}{9}{subsection.3.2}}
\citation{Twawez2013}
\@writefile{lof}{\contentsline {figure}{\numberline {3}{\ignorespaces Districts in Tanzania from which schools are selected\relax }}{10}{figure.caption.3}}
\newlabel{fig:mapa}{{3}{10}{Districts in Tanzania from which schools are selected\relax }{figure.caption.3}{}}
\@writefile{toc}{\contentsline {subsubsection}{\numberline {3.2.1}Capitation Grant (CG) Arm}{10}{subsubsection.3.2.1}}
\citation{Neal2010}
\@writefile{toc}{\contentsline {subsubsection}{\numberline {3.2.2}Cash on Delivery (COD) Arm }{11}{subsubsection.3.2.2}}
\@writefile{toc}{\contentsline {subsubsection}{\numberline {3.2.3}Combination arm}{12}{subsubsection.3.2.3}}
\@writefile{toc}{\contentsline {subsection}{\numberline {3.3}Data, balance and attrition}{12}{subsection.3.3}}
\@writefile{lof}{\contentsline {figure}{\numberline {4}{\ignorespaces \relax }}{13}{figure.caption.4}}
\newlabel{fig:timeline}{{4}{13}{\relax }{figure.caption.4}{}}
\@writefile{lot}{\contentsline {table}{\numberline {1}{\ignorespaces Summary statistics across treatment groups\relax }}{14}{table.1}}
\newlabel{tab:summary}{{1}{14}{Summary statistics across treatment groups\relax }{table.1}{}}
\@writefile{lot}{\contentsline {table}{\numberline {2}{\ignorespaces Student attrition\relax }}{15}{table.2}}
\newlabel{tab:attrition}{{2}{15}{Student attrition\relax }{table.2}{}}
\@writefile{toc}{\contentsline {section}{\numberline {4}Results}{15}{section.4}}
\@writefile{toc}{\contentsline {subsection}{\numberline {4.1}School expenditure and funding}{15}{subsection.4.1}}
\@writefile{lot}{\contentsline {table}{\numberline {3}{\ignorespaces How are schools spending the money?\relax }}{16}{table.3}}
\newlabel{tab:exp_Twa_grant}{{3}{16}{How are schools spending the money?\relax }{table.3}{}}
\citation{Das2013}
\citation{Pop-Eleches2013}
\citation{Guardian2012}
\@writefile{lot}{\contentsline {table}{\numberline {4}{\ignorespaces Expenditure and funding\relax }}{18}{table.4}}
\newlabel{tab:exp_sub_hh}{{4}{18}{Expenditure and funding\relax }{table.4}{}}
\@writefile{lot}{\contentsline {table}{\numberline {5}{\ignorespaces Expenditure on textbooks\relax }}{19}{table.5}}
\newlabel{tab:exp_text}{{5}{19}{Expenditure on textbooks\relax }{table.5}{}}
\@writefile{toc}{\contentsline {subsection}{\numberline {4.2}Test scores}{19}{subsection.4.2}}
\@writefile{lot}{\contentsline {table}{\numberline {6}{\ignorespaces Effect on test scores \relax }}{20}{table.caption.5}}
\newlabel{tab:test_scores}{{6}{20}{Effect on test scores \relax }{table.caption.5}{}}
\@writefile{lot}{\contentsline {table}{\numberline {7}{\ignorespaces Effect on test scores \relax }}{21}{table.7}}
\newlabel{tab:spillovers}{{7}{21}{Effect on test scores \relax }{table.7}{}}
\@writefile{toc}{\contentsline {subsection}{\numberline {4.3}Teacher effort}{21}{subsection.4.3}}
\@writefile{lot}{\contentsline {table}{\numberline {8}{\ignorespaces Focal years tutoring, tests and remedial\relax }}{22}{table.8}}
\newlabel{tab:pedagogy}{{8}{22}{Focal years tutoring, tests and remedial\relax }{table.8}{}}
\@writefile{lot}{\contentsline {table}{\numberline {9}{\ignorespaces Teacher Time Use\relax }}{23}{table.caption.6}}
\newlabel{tab:time_use}{{9}{23}{Teacher Time Use\relax }{table.caption.6}{}}
\@writefile{toc}{\contentsline {subsection}{\numberline {4.4}Heterogeneity}{23}{subsection.4.4}}
\@writefile{lot}{\contentsline {table}{\numberline {10}{\ignorespaces Heterogeneity by student characteristics\relax }}{24}{table.10}}
\newlabel{tab:het_stud}{{10}{24}{Heterogeneity by student characteristics\relax }{table.10}{}}
\@writefile{lof}{\contentsline {figure}{\numberline {5}{\ignorespaces Non-parametric treatment effects of COD by percentile of baseline score\relax }}{25}{figure.caption.7}}
\newlabel{fig:cod_kis}{{5a}{25}{Swahili\relax }{figure.caption.7}{}}
\newlabel{sub@fig:cod_kis}{{a}{25}{Swahili\relax }{figure.caption.7}{}}
\newlabel{fig:cod_king}{{5b}{25}{English\relax }{figure.caption.7}{}}
\newlabel{sub@fig:cod_king}{{b}{25}{English\relax }{figure.caption.7}{}}
\newlabel{fig:cod_his}{{5c}{25}{Math\relax }{figure.caption.7}{}}
\newlabel{sub@fig:cod_his}{{c}{25}{Math\relax }{figure.caption.7}{}}
\@writefile{lof}{\contentsline {figure}{\numberline {6}{\ignorespaces Non-parametric treatment effects of CG by percentile of baseline score\relax }}{26}{figure.caption.8}}
\newlabel{fig:cg_kis}{{6a}{26}{Swahili\relax }{figure.caption.8}{}}
\newlabel{sub@fig:cg_kis}{{a}{26}{Swahili\relax }{figure.caption.8}{}}
\newlabel{fig:cg_king}{{6b}{26}{English\relax }{figure.caption.8}{}}
\newlabel{sub@fig:cg_king}{{b}{26}{English\relax }{figure.caption.8}{}}
\newlabel{fig:cg_his}{{6c}{26}{Math\relax }{figure.caption.8}{}}
\newlabel{sub@fig:cg_his}{{c}{26}{Math\relax }{figure.caption.8}{}}
\@writefile{lof}{\contentsline {figure}{\numberline {7}{\ignorespaces Non-parametric treatment effects of Combo by percentile of baseline score\relax }}{27}{figure.caption.9}}
\newlabel{fig:combo_kis}{{7a}{27}{Swahili\relax }{figure.caption.9}{}}
\newlabel{sub@fig:combo_kis}{{a}{27}{Swahili\relax }{figure.caption.9}{}}
\newlabel{fig:combo_king}{{7b}{27}{English\relax }{figure.caption.9}{}}
\newlabel{sub@fig:combo_king}{{b}{27}{English\relax }{figure.caption.9}{}}
\newlabel{fig:combo_his}{{7c}{27}{Math\relax }{figure.caption.9}{}}
\newlabel{sub@fig:combo_his}{{c}{27}{Math\relax }{figure.caption.9}{}}
\@writefile{toc}{\contentsline {subsection}{\numberline {4.5}Low-stakes Vs high-stakes test}{27}{subsection.4.5}}
\citation{Kremer2003}
\@writefile{lot}{\contentsline {table}{\numberline {11}{\ignorespaces High- and low-stakes exams\relax }}{28}{table.caption.10}}
\newlabel{tab:high_vs_low_short}{{11}{28}{High- and low-stakes exams\relax }{table.caption.10}{}}
\citation{Kremer2003}
\citation{Leeb2005}
\citation{Leeb2006}
\citation{Leeb2008}
\@writefile{toc}{\contentsline {subsection}{\numberline {4.6}Cross-cut designs in RCTs}{29}{subsection.4.6}}
\newlabel{eq:inter}{{4}{29}{Cross-cut designs in RCTs}{equation.4.4}{}}
\newlabel{eq:sep}{{5}{29}{Cross-cut designs in RCTs}{equation.4.5}{}}
\citation{McCloskey2012}
\citation{McCloskey2012}
\citation{McCloskey2012}
\citation{McCloskey2012}
\citation{McCloskey2012}
\citation{McCloskey2012}
\citation{McCloskey2012}
\@writefile{lot}{\contentsline {table}{\numberline {12}{\ignorespaces Effect on test scores \relax }}{31}{table.caption.11}}
\newlabel{tab:interactions}{{12}{31}{Effect on test scores \relax }{table.caption.11}{}}
\@writefile{toc}{\contentsline {subsection}{\numberline {4.7}Conservative model selection}{31}{subsection.4.7}}
\citation{McCloskey2012}
\@writefile{lot}{\contentsline {table}{\numberline {13}{\ignorespaces Effect on test scores \relax }}{32}{table.caption.12}}
\newlabel{tab:corrections_conserv}{{13}{32}{Effect on test scores \relax }{table.caption.12}{}}
\@writefile{toc}{\contentsline {subsection}{\numberline {4.8}Consistent model selection}{32}{subsection.4.8}}
\bibstyle{apacite}
\bibdata{TanBib}
\bibcite{CRES2013}{\citeauthoryear {{Centre de Recherche Economique et Sociale}}{{Centre de Recherche Economique et Sociale}}{{\APACyear {2013}}}}
\APACbibcite{CRES2013}{\citeauthoryear {{Centre de Recherche Economique et Sociale}}{{Centre de Recherche Economique et Sociale}}{{\APACyear {2013}}}}
\bibcite{Das2013}{\citeauthoryear {Das\ \BOthers {.}}{Das\ \BOthers {.}}{{\APACyear {2013}}}}
\APACbibcite{Das2013}{\citeauthoryear {Das\ \BOthers {.}}{Das\ \BOthers {.}}{{\APACyear {2013}}}}
\@writefile{lot}{\contentsline {table}{\numberline {14}{\ignorespaces Effect on test scores \relax }}{33}{table.caption.13}}
\newlabel{tab:corrections_consistent}{{14}{33}{Effect on test scores \relax }{table.caption.13}{}}
\@writefile{toc}{\contentsline {section}{\numberline {5}Conclusion}{33}{section.5}}
\@writefile{toc}{\contentsline {section}{References}{33}{section*.14}}
\bibcite{Fryer2013}{\citeauthoryear {Fryer}{Fryer}{{\APACyear {2013}}}}
\APACbibcite{Fryer2013}{\citeauthoryear {Fryer}{Fryer}{{\APACyear {2013}}}}
\bibcite{Glewwe2010}{\citeauthoryear {Glewwe, Ilias,{}\ \BBA{} Kremer}{Glewwe\ \BOthers {.}}{{\APACyear {2010}}}}
\APACbibcite{Glewwe2010}{\citeauthoryear {Glewwe, Ilias,{}\ \BBA{} Kremer}{Glewwe\ \BOthers {.}}{{\APACyear {2010}}}}
\bibcite{Grogan2009}{\citeauthoryear {Grogan}{Grogan}{{\APACyear {2009}}}}
\APACbibcite{Grogan2009}{\citeauthoryear {Grogan}{Grogan}{{\APACyear {2009}}}}
\bibcite{Jones2014}{\citeauthoryear {Jones, Schipper, Ruto,{}\ \BBA{} Rajani}{Jones\ \BOthers {.}}{{\APACyear {2014}}}}
\APACbibcite{Jones2014}{\citeauthoryear {Jones, Schipper, Ruto,{}\ \BBA{} Rajani}{Jones\ \BOthers {.}}{{\APACyear {2014}}}}
\bibcite{Kremer2003}{\citeauthoryear {Kremer}{Kremer}{{\APACyear {2003}}}}
\APACbibcite{Kremer2003}{\citeauthoryear {Kremer}{Kremer}{{\APACyear {2003}}}}
\bibcite{Leeb2005}{\citeauthoryear {Leeb\ \BBA{} P{\"o}tscher}{Leeb\ \BBA{} P{\"o}tscher}{{\APACyear {2005}}}}
\APACbibcite{Leeb2005}{\citeauthoryear {Leeb\ \BBA{} P{\"o}tscher}{Leeb\ \BBA{} P{\"o}tscher}{{\APACyear {2005}}}}
\bibcite{Leeb2006}{\citeauthoryear {Leeb\ \BBA{} P{\"o}tscher}{Leeb\ \BBA{} P{\"o}tscher}{{\APACyear {2006}}}}
\APACbibcite{Leeb2006}{\citeauthoryear {Leeb\ \BBA{} P{\"o}tscher}{Leeb\ \BBA{} P{\"o}tscher}{{\APACyear {2006}}}}
\bibcite{Leeb2008}{\citeauthoryear {Leeb\ \BBA{} P{\"o}tscher}{Leeb\ \BBA{} P{\"o}tscher}{{\APACyear {2008}}}}
\APACbibcite{Leeb2008}{\citeauthoryear {Leeb\ \BBA{} P{\"o}tscher}{Leeb\ \BBA{} P{\"o}tscher}{{\APACyear {2008}}}}
\bibcite{Lucas2012}{\citeauthoryear {Lucas\ \BBA{} Mbiti}{Lucas\ \BBA{} Mbiti}{{\APACyear {2012}}}}
\APACbibcite{Lucas2012}{\citeauthoryear {Lucas\ \BBA{} Mbiti}{Lucas\ \BBA{} Mbiti}{{\APACyear {2012}}}}
\bibcite{McCloskey2012}{\citeauthoryear {McCloskey}{McCloskey}{{\APACyear {2012}}}}
\APACbibcite{McCloskey2012}{\citeauthoryear {McCloskey}{McCloskey}{{\APACyear {2012}}}}
\bibcite{Muralidharan2011}{\citeauthoryear {Muralidharan\ \BBA{} Sundararaman}{Muralidharan\ \BBA{} Sundararaman}{{\APACyear {2011}}}}
\APACbibcite{Muralidharan2011}{\citeauthoryear {Muralidharan\ \BBA{} Sundararaman}{Muralidharan\ \BBA{} Sundararaman}{{\APACyear {2011}}}}
\bibcite{Murnane2014}{\citeauthoryear {Murnane\ \BBA{} Ganimian}{Murnane\ \BBA{} Ganimian}{{\APACyear {2014}}}}
\APACbibcite{Murnane2014}{\citeauthoryear {Murnane\ \BBA{} Ganimian}{Murnane\ \BBA{} Ganimian}{{\APACyear {2014}}}}
\bibcite{Neal2010}{\citeauthoryear {Neal\ \BBA{} Schanzenbach}{Neal\ \BBA{} Schanzenbach}{{\APACyear {2010}}}}
\APACbibcite{Neal2010}{\citeauthoryear {Neal\ \BBA{} Schanzenbach}{Neal\ \BBA{} Schanzenbach}{{\APACyear {2010}}}}
\bibcite{Pop-Eleches2013}{\citeauthoryear {Pop-Eleches\ \BBA{} Urquiola}{Pop-Eleches\ \BBA{} Urquiola}{{\APACyear {2013}}}}
\APACbibcite{Pop-Eleches2013}{\citeauthoryear {Pop-Eleches\ \BBA{} Urquiola}{Pop-Eleches\ \BBA{} Urquiola}{{\APACyear {2013}}}}
\bibcite{Sabarwal2014}{\citeauthoryear {Sabarwal, Evans,{}\ \BBA{} Marshak}{Sabarwal\ \BOthers {.}}{{\APACyear {2014}}}}
\APACbibcite{Sabarwal2014}{\citeauthoryear {Sabarwal, Evans,{}\ \BBA{} Marshak}{Sabarwal\ \BOthers {.}}{{\APACyear {2014}}}}
\bibcite{Guardian2012}{\citeauthoryear {{The Guardian}}{{The Guardian}}{{\APACyear {2012}}}}
\APACbibcite{Guardian2012}{\citeauthoryear {{The Guardian}}{{The Guardian}}{{\APACyear {2012}}}}
\bibcite{Twawez2013}{\citeauthoryear {Twaweza}{Twaweza}{{\APACyear {2013}}}}
\APACbibcite{Twawez2013}{\citeauthoryear {Twaweza}{Twaweza}{{\APACyear {2013}}}}
\bibcite{Uwezo2012}{\citeauthoryear {Uwezo}{Uwezo}{{\APACyear {2012}}}}
\APACbibcite{Uwezo2012}{\citeauthoryear {Uwezo}{Uwezo}{{\APACyear {2012}}}}
\bibcite{Uwezo2013}{\citeauthoryear {Uwezo}{Uwezo}{{\APACyear {2013}}}}
\APACbibcite{Uwezo2013}{\citeauthoryear {Uwezo}{Uwezo}{{\APACyear {2013}}}}
\bibcite{Valente2015}{\citeauthoryear {Valente}{Valente}{{\APACyear {2015}}}}
\APACbibcite{Valente2015}{\citeauthoryear {Valente}{Valente}{{\APACyear {2015}}}}
\bibcite{WorldBank2012}{\citeauthoryear {{World Bank}}{{World Bank}}{{\APACyear {2012}}}}
\APACbibcite{WorldBank2012}{\citeauthoryear {{World Bank}}{{World Bank}}{{\APACyear {2012}}}}
\@writefile{toc}{\contentsline {section}{\numberline {A}Theoretical Model - Additional Proofs}{35}{appendix.A}}
\newlabel{sec:math_app}{{A}{35}{Theoretical Model - Additional Proofs}{appendix.A}{}}
\@writefile{toc}{\contentsline {section}{\numberline {B}Additional tables}{37}{appendix.B}}
\newlabel{sec:extra_table}{{B}{37}{Additional tables}{appendix.B}{}}
\@writefile{toc}{\contentsline {section}{\numberline {C}Low- and high-stakes exams}{37}{appendix.C}}
\newlabel{sec:lowvshigh}{{C}{37}{Low- and high-stakes exams}{appendix.C}{}}
\@writefile{lot}{\contentsline {table}{\numberline {15}{\ignorespaces Total expenditure\relax }}{38}{table.caption.15}}
\newlabel{tab:exppenditure}{{15}{38}{Total expenditure\relax }{table.caption.15}{}}
\@writefile{lot}{\contentsline {table}{\numberline {16}{\ignorespaces Substitution from other sources\relax }}{39}{table.caption.16}}
\newlabel{tab:substitutionCG}{{16}{39}{Substitution from other sources\relax }{table.caption.16}{}}
\@writefile{lot}{\contentsline {table}{\numberline {17}{\ignorespaces Household expenditure\relax }}{40}{table.caption.17}}
\newlabel{tab:HH_exp}{{17}{40}{Household expenditure\relax }{table.caption.17}{}}
\@writefile{lot}{\contentsline {table}{\numberline {18}{\ignorespaces High- and low-stakes exams\relax }}{41}{table.caption.18}}
\newlabel{tab:high_vs_low}{{18}{41}{High- and low-stakes exams\relax }{table.caption.18}{}}
