\relax 
\providecommand\hyper@newdestlabel[2]{}
\providecommand\HyperFirstAtBeginDocument{\AtBeginDocument}
\HyperFirstAtBeginDocument{\ifx\hyper@anchor\@undefined
\global\let\oldcontentsline\contentsline
\gdef\contentsline#1#2#3#4{\oldcontentsline{#1}{#2}{#3}}
\global\let\oldnewlabel\newlabel
\gdef\newlabel#1#2{\newlabelxx{#1}#2}
\gdef\newlabelxx#1#2#3#4#5#6{\oldnewlabel{#1}{{#2}{#3}}}
\AtEndDocument{\ifx\hyper@anchor\@undefined
\let\contentsline\oldcontentsline
\let\newlabel\oldnewlabel
\fi}
\fi}
\global\let\hyper@last\relax 
\gdef\HyperFirstAtBeginDocument#1{#1}
\providecommand\HyField@AuxAddToFields[1]{}
\providecommand\HyField@AuxAddToCoFields[2]{}
\citation{Lucas2012}
\citation{Grogan2009}
\citation{Valente2015}
\citation{Uwezo2013}
\select@language{english}
\@writefile{toc}{\select@language{english}}
\@writefile{lof}{\select@language{english}}
\@writefile{lot}{\select@language{english}}
\@writefile{toc}{\contentsline {section}{\numberline {1}Introduction}{1}{section.1}}
\citation{Murnane2014}
\citation{Uwezo2012}
\citation{WorldBank2012}
\citation{CRES2013}
\citation{Muralidharan2011}
\citation{Fryer2013}
\citation{Glewwe2010}
\citation{Muralidharan2011}
\citation{Fryer2013}
\citation{Glewwe2010}
\citation{Sabarwal2014}
\@writefile{toc}{\contentsline {section}{\numberline {2}Theoretical framework}{4}{section.2}}
\@writefile{lof}{\contentsline {figure}{\numberline {1}{\ignorespaces The effect of an increase in incentives on teacher effort\relax }}{5}{figure.caption.1}}
\providecommand*\caption@xref[2]{\@setref\relax\@undefined{#1}}
\newlabel{fig:increase_incentives}{{1}{5}{The effect of an increase in incentives on teacher effort\relax }{figure.caption.1}{}}
\@writefile{lof}{\contentsline {figure}{\numberline {2}{\ignorespaces The effect of an increase in inputs on teacher effort\relax }}{6}{figure.caption.2}}
\newlabel{fig:increase_inputs}{{2}{6}{The effect of an increase in inputs on teacher effort\relax }{figure.caption.2}{}}
\citation{Twawez2010}
\citation{WorldBank2012}
\citation{Twawez2013}
\citation{Valente2015}
\citation{WorldBank2012}
\@writefile{toc}{\contentsline {section}{\numberline {3}Experimental design}{7}{section.3}}
\@writefile{toc}{\contentsline {subsection}{\numberline {3.1}Context}{7}{subsection.3.1}}
\citation{WorldBank2012}
\citation{WorldBank2012}
\citation{Uwezo2013}
\citation{Jones2014}
\@writefile{toc}{\contentsline {subsection}{\numberline {3.2}Sampling and design}{9}{subsection.3.2}}
\citation{Twawez2013}
\@writefile{lof}{\contentsline {figure}{\numberline {3}{\ignorespaces Districts in Tanzania from which schools are selected\relax }}{10}{figure.caption.3}}
\newlabel{fig:mapa}{{3}{10}{Districts in Tanzania from which schools are selected\relax }{figure.caption.3}{}}
\@writefile{toc}{\contentsline {subsubsection}{\numberline {3.2.1}Capitation Grant (CG) Arm}{10}{subsubsection.3.2.1}}
\citation{Neal2010}
\@writefile{toc}{\contentsline {subsubsection}{\numberline {3.2.2}Cash on Delivery (COD) Arm }{11}{subsubsection.3.2.2}}
\@writefile{toc}{\contentsline {subsubsection}{\numberline {3.2.3}Combination arm}{12}{subsubsection.3.2.3}}
\@writefile{toc}{\contentsline {subsection}{\numberline {3.3}Data, balance and attrition}{12}{subsection.3.3}}
\@writefile{lof}{\contentsline {figure}{\numberline {4}{\ignorespaces \relax }}{13}{figure.caption.4}}
\newlabel{fig:timeline}{{4}{13}{\relax }{figure.caption.4}{}}
\@writefile{lot}{\contentsline {table}{\numberline {1}{\ignorespaces Summary statistics across treatment groups\relax }}{14}{table.1}}
\newlabel{tab:summary}{{1}{14}{Summary statistics across treatment groups\relax }{table.1}{}}
\@writefile{lot}{\contentsline {table}{\numberline {2}{\ignorespaces Student attrition\relax }}{15}{table.2}}
\newlabel{tab:attrition}{{2}{15}{Student attrition\relax }{table.2}{}}
\@writefile{toc}{\contentsline {section}{\numberline {4}Results}{15}{section.4}}
\@writefile{toc}{\contentsline {subsection}{\numberline {4.1}School expenditure and funding}{15}{subsection.4.1}}
\@writefile{lot}{\contentsline {table}{\numberline {3}{\ignorespaces How are schools spending the money?\relax }}{16}{table.3}}
\newlabel{tab:exp_Twa_grant}{{3}{16}{How are schools spending the money?\relax }{table.3}{}}
\citation{Das2013}
\citation{Pop-Eleches2013}
\@writefile{lot}{\contentsline {table}{\numberline {4}{\ignorespaces Expenditure and funding\relax }}{18}{table.4}}
\newlabel{tab:exp_sub_hh}{{4}{18}{Expenditure and funding\relax }{table.4}{}}
\@writefile{lot}{\contentsline {table}{\numberline {5}{\ignorespaces Expenditure on textbooks\relax }}{19}{table.5}}
\newlabel{tab:exp_text}{{5}{19}{Expenditure on textbooks\relax }{table.5}{}}
\@writefile{toc}{\contentsline {subsection}{\numberline {4.2}Test scores}{19}{subsection.4.2}}
\@writefile{lot}{\contentsline {table}{\numberline {6}{\ignorespaces Effect on test scores \relax }}{20}{table.caption.5}}
\newlabel{tab:test_scores}{{6}{20}{Effect on test scores \relax }{table.caption.5}{}}
\@writefile{lot}{\contentsline {table}{\numberline {7}{\ignorespaces Effect on test scores \relax }}{21}{table.7}}
\newlabel{tab:spillovers}{{7}{21}{Effect on test scores \relax }{table.7}{}}
\@writefile{toc}{\contentsline {subsection}{\numberline {4.3}Teacher effort}{21}{subsection.4.3}}
