\BOOKMARK [1][-]{section.1}{Introduction}{}% 1
\BOOKMARK [1][-]{section.2}{Theoretical framework}{}% 2
\BOOKMARK [1][-]{section.3}{Experimental design}{}% 3
\BOOKMARK [2][-]{subsection.3.1}{Context}{section.3}% 4
\BOOKMARK [2][-]{subsection.3.2}{Sampling and design}{section.3}% 5
\BOOKMARK [3][-]{subsubsection.3.2.1}{Capitation Grant \(CG\) Arm}{subsection.3.2}% 6
\BOOKMARK [3][-]{subsubsection.3.2.2}{Cash on Delivery \(COD\) Arm }{subsection.3.2}% 7
\BOOKMARK [3][-]{subsubsection.3.2.3}{Combination arm}{subsection.3.2}% 8
\BOOKMARK [2][-]{subsection.3.3}{Data, balance and attrition}{section.3}% 9
\BOOKMARK [1][-]{section.4}{Results}{}% 10
\BOOKMARK [2][-]{subsection.4.1}{School expenditure and funding}{section.4}% 11
\BOOKMARK [2][-]{subsection.4.2}{Test scores}{section.4}% 12
\BOOKMARK [2][-]{subsection.4.3}{Teacher effort}{section.4}% 13
