="",="Total",="Government CG",="Government Other",="Local Government",="NGOs",="Parents",="Other"
="CG",="725.8",="749.6*",="269.0",="-137.5",="0.35",="-118.1",="-34.5"
="",="(615.6)",="(387.1)",="(254.3)",="(275.4)",="(9.02)",="(211.8)",="(163.0)"
="COD",="-67.0",="-17.0",="246.8",="115.3",="-15.0*",="-524.8**",="103.4"
="",="(615.0)",="(387.0)",="(254.2)",="(277.5)",="(9.03)",="(211.7)",="(163.0)"
="Combo",="217.8",="431.0",="465.7*",="-244.0",="-10.6",="-267.7",="-159.2"
="",="(623.0)",="(392.0)",="(257.3)",="(278.9)",="(9.16)",="(214.4)",="(165.1)"
="N. of obs.",="350",="350",="350",="350",="350",="350",="350"
="Mean control",="6095.8",="4439.0",="40.1",="366.6",="7.82",="1084.1",="158.3"
="Combo-COD-CG",="-440.9",="-301.6",="-50.1",="-221.8",="4.11",="375.1",="-228.2"
="p-value ($H_0$:Combo-COD-CG=0)",="0.63",="0.60",="0.90",="0.59",="0.76",="0.24",="0.35"
