="",="Yr 1",="Yr 2"

="CG",="0.0054",="0.0052"
="",="(0.012)",="(0.0096)"

="COD",="0.022*",="0.00038"
="",="(0.011)",="(0.011)"

="Combo",="0.00025",="0.0029"
="",="(0.012)",="(0.010)"

="N. of obs.",="10496",="10496"
="Mean control",="0.87",="0.90"
="Combo-COD-CG",="-0.027",="-0.0027"
="p-value ($H_0$:Combo-COD-CG=0)",="0.12",="0.87"
