="CG",="0.019",="0.013",="-0.020",="-0.0082",="0.0025",="0.010"
="",="(0.044)",="(0.048)",="(0.028)",="(0.015)",="(0.011)",="(0.032)"
="COD",="0.13***",="0.0047",="0.011",="-0.00074",="-0.012",="-0.046"
="",="(0.044)",="(0.047)",="(0.024)",="(0.016)",="(0.011)",="(0.032)"
="Combo",="0.077*",="-0.079",="-0.011",="0.0042",="0.0071",="0.012"
="",="(0.044)",="(0.051)",="(0.027)",="(0.016)",="(0.013)",="(0.036)"
="N. of obs.",="1528",="1528",="1528",="1521",="1521",="1521"
="Mean of Dep. Var.",="0.28",="0.66",="0.93",="0.043",="0.026",="0.14"
="Combo-COD-CG",="-0.076",="-0.096",="-0.0027",="0.013",="0.017",="0.048"
="p-value ($H_0$:Combo-COD-CG=0)",="0.26",="0.16",="0.94",="0.56",="0.37",="0.32"
