="CG",="2250.3***",="1226.5***"
="",="(387.4)",="(210.0)"
="COD",="-249.7",="-19.0"
="",="(216.9)",="(81.6)"
="Combo",="1756.4***",="1221.8***"
="",="(340.2)",="(232.6)"
="FG",="-689.5***",="-28.6"
="",="(101.1)",="(25.1)"
="Combo $\times$ FG",="645.6",="-509.9**"
="",="(410.2)",="(215.2)"
="COD $\times$ FG",="162.7",="11.6"
="",="(192.4)",="(30.2)"
="CG $\times$ FG",="-427.9",="-512.9**"
="",="(324.3)",="(207.1)"
="N. of obs.",="2434",="2446"
="Mean control",="1272.1",="125.9"
="Mean control (FG)",="888.2",="109.3"
="Combo-COD-CG",="-244.2",="14.3"
="p-value ($H_0$=Combo-COD-CG=0)",="0.64",="0.96"
="Combo-COD-CG (FG)",="1356.1",="34.3"
="p-value ($H_0$=Combo-COD-CG (FG)=0)",="0.0043",="0.88"
