="Household size",="6.247",="6.332",="6.436",="6.352",="0.805"
="",="(0.134)",="(0.141)",="(0.137)",="(0.0940)",=""
="Asset Index (PCA)",="-0.0144",="-0.0585",="0.0259",="0.0234",="0.927"
="",="(0.101)",="(0.106)",="(0.115)",="(0.0778)",=""
="Expenditure in education (2013)",="11371.7",="10382.4",="11876.8",="13218.6",="0.208"
="",="(1053.8)",="(975.5)",="(1236.8)",="(935.8)",=""
="Floor made out of earth/mud",="0.657",="0.659",="0.660",="0.668",="0.994"
="",="(0.0365)",="(0.0367)",="(0.0367)",="(0.0249)",=""
