="Total",="5609.6",="6047.3",="-437.6"
="",="(352.1)",="(352.6)",=""
="\$ Admin./Student",="2023.3",="2069.7",="-46.41"
="",="(167.9)",="(199.2)",=""
="\$ Student/Student",="409.0",="456.3",="-47.25"
="",="(65.03)",="(82.08)",=""
="\$ Teaching Aid/Student",="3110.0",="3448.1",="-338.2"
="",="(259.9)",="(268.6)",=""
="\$ Teacher/Student",="0",="3.364",="-3.364"
="",="(0)",="(3.364)",=""
="\$ Construction/Student",="67.31",="69.76",="-2.444"
="",="(39.29)",="(61.16)",=""
