\relax 
\providecommand\hyper@newdestlabel[2]{}
\providecommand\HyperFirstAtBeginDocument{\AtBeginDocument}
\HyperFirstAtBeginDocument{\ifx\hyper@anchor\@undefined
\global\let\oldcontentsline\contentsline
\gdef\contentsline#1#2#3#4{\oldcontentsline{#1}{#2}{#3}}
\global\let\oldnewlabel\newlabel
\gdef\newlabel#1#2{\newlabelxx{#1}#2}
\gdef\newlabelxx#1#2#3#4#5#6{\oldnewlabel{#1}{{#2}{#3}}}
\AtEndDocument{\ifx\hyper@anchor\@undefined
\let\contentsline\oldcontentsline
\let\newlabel\oldnewlabel
\fi}
\fi}
\global\let\hyper@last\relax 
\gdef\HyperFirstAtBeginDocument#1{#1}
\providecommand\HyField@AuxAddToFields[1]{}
\providecommand\HyField@AuxAddToCoFields[2]{}
\providecommand \oddpage@label [2]{}
\@writefile{toc}{\beamer@endinputifotherversion {3.24pt}}
\@writefile{nav}{\beamer@endinputifotherversion {3.24pt}}
\@writefile{nav}{\headcommand {\slideentry {0}{0}{1}{1/1}{}{0}}}
\@writefile{nav}{\headcommand {\beamer@framepages {1}{1}}}
\@writefile{toc}{\beamer@sectionintoc {1}{Introduction}{2}{0}{1}}
\@writefile{nav}{\headcommand {\sectionentry {1}{Introduction}{2}{Introduction}{0}}}
\@writefile{nav}{\headcommand {\beamer@sectionpages {1}{1}}}
\@writefile{nav}{\headcommand {\beamer@subsectionpages {1}{1}}}
\@writefile{nav}{\headcommand {\slideentry {1}{0}{2}{2/2}{}{0}}}
\@writefile{nav}{\headcommand {\beamer@framepages {2}{2}}}
\@writefile{nav}{\headcommand {\slideentry {1}{0}{3}{3/5}{}{0}}}
\@writefile{nav}{\headcommand {\beamer@framepages {3}{5}}}
\@writefile{nav}{\headcommand {\slideentry {1}{0}{4}{6/9}{}{0}}}
\@writefile{nav}{\headcommand {\beamer@framepages {6}{9}}}
\@writefile{nav}{\headcommand {\slideentry {1}{0}{5}{10/13}{}{0}}}
\@writefile{nav}{\headcommand {\beamer@framepages {10}{13}}}
\@writefile{nav}{\headcommand {\slideentry {1}{0}{6}{14/14}{}{0}}}
\@writefile{nav}{\headcommand {\beamer@framepages {14}{14}}}
\@writefile{toc}{\beamer@sectionintoc {2}{Design and data}{15}{0}{2}}
\@writefile{nav}{\headcommand {\sectionentry {2}{Design and data}{15}{Design and data}{0}}}
\@writefile{nav}{\headcommand {\beamer@sectionpages {2}{14}}}
\@writefile{nav}{\headcommand {\beamer@subsectionpages {2}{14}}}
\@writefile{nav}{\headcommand {\slideentry {2}{0}{7}{15/15}{}{0}}}
\@writefile{nav}{\headcommand {\beamer@framepages {15}{15}}}
\newlabel{fig:mapa}{{1}{16}{Design and data}{Doc-Start}{}}
\@writefile{snm}{\beamer@slide {fig:mapa}{16}}
\@writefile{nav}{\headcommand {\slideentry {2}{0}{8}{16/16}{}{0}}}
\@writefile{nav}{\headcommand {\beamer@framepages {16}{16}}}
\@writefile{nav}{\headcommand {\slideentry {2}{0}{9}{17/17}{}{0}}}
\@writefile{nav}{\headcommand {\beamer@framepages {17}{17}}}
\@writefile{nav}{\headcommand {\slideentry {2}{0}{10}{18/18}{}{0}}}
\@writefile{nav}{\headcommand {\beamer@framepages {18}{18}}}
\@writefile{nav}{\headcommand {\slideentry {2}{0}{11}{19/19}{}{0}}}
\@writefile{nav}{\headcommand {\beamer@framepages {19}{19}}}
\@writefile{nav}{\headcommand {\slideentry {2}{0}{12}{20/20}{}{0}}}
\@writefile{nav}{\headcommand {\beamer@framepages {20}{20}}}
\@writefile{nav}{\headcommand {\slideentry {2}{0}{13}{21/21}{}{0}}}
\@writefile{nav}{\headcommand {\beamer@framepages {21}{21}}}
\@writefile{nav}{\headcommand {\slideentry {2}{0}{14}{22/22}{}{0}}}
\@writefile{nav}{\headcommand {\beamer@framepages {22}{22}}}
\@writefile{nav}{\headcommand {\slideentry {2}{0}{15}{23/23}{}{0}}}
\@writefile{nav}{\headcommand {\beamer@framepages {23}{23}}}
\@writefile{nav}{\headcommand {\slideentry {2}{0}{16}{24/24}{}{0}}}
\@writefile{nav}{\headcommand {\beamer@framepages {24}{24}}}
\@writefile{toc}{\beamer@sectionintoc {3}{Results - Expenditure}{25}{0}{3}}
\@writefile{nav}{\headcommand {\sectionentry {3}{Results - Expenditure}{25}{Results - Expenditure}{0}}}
\@writefile{nav}{\headcommand {\beamer@sectionpages {15}{24}}}
\@writefile{nav}{\headcommand {\beamer@subsectionpages {15}{24}}}
\@writefile{nav}{\headcommand {\slideentry {3}{0}{17}{25/25}{}{0}}}
\@writefile{nav}{\headcommand {\beamer@framepages {25}{25}}}
\@writefile{nav}{\headcommand {\slideentry {3}{0}{18}{26/26}{}{0}}}
\@writefile{nav}{\headcommand {\beamer@framepages {26}{26}}}
\@writefile{nav}{\headcommand {\slideentry {3}{0}{19}{27/27}{}{0}}}
\@writefile{nav}{\headcommand {\beamer@framepages {27}{27}}}
\@writefile{nav}{\headcommand {\slideentry {3}{0}{20}{28/28}{}{0}}}
\@writefile{nav}{\headcommand {\beamer@framepages {28}{28}}}
\@writefile{toc}{\beamer@sectionintoc {4}{Results - Test scores}{29}{0}{4}}
\@writefile{nav}{\headcommand {\sectionentry {4}{Results - Test scores}{29}{Results - Test scores}{0}}}
\@writefile{nav}{\headcommand {\beamer@sectionpages {25}{28}}}
\@writefile{nav}{\headcommand {\beamer@subsectionpages {25}{28}}}
\@writefile{nav}{\headcommand {\slideentry {4}{0}{21}{29/29}{}{0}}}
\@writefile{nav}{\headcommand {\beamer@framepages {29}{29}}}
\newlabel{reg1<1>}{{22}{30}{Results - Test scores}{Doc-Start}{}}
\@writefile{snm}{\beamer@slide {reg1<1>}{30}}
\newlabel{reg1}{{22}{30}{Results - Test scores}{Doc-Start}{}}
\@writefile{snm}{\beamer@slide {reg1}{30}}
\@writefile{nav}{\headcommand {\slideentry {4}{0}{22}{30/30}{}{0}}}
\@writefile{nav}{\headcommand {\beamer@framepages {30}{30}}}
\@writefile{nav}{\headcommand {\slideentry {4}{0}{23}{31/31}{}{0}}}
\@writefile{nav}{\headcommand {\beamer@framepages {31}{31}}}
\@writefile{nav}{\headcommand {\slideentry {4}{0}{24}{32/32}{}{0}}}
\@writefile{nav}{\headcommand {\beamer@framepages {32}{32}}}
\@writefile{nav}{\headcommand {\slideentry {4}{0}{25}{33/33}{}{0}}}
\@writefile{nav}{\headcommand {\beamer@framepages {33}{33}}}
\@writefile{nav}{\headcommand {\slideentry {4}{0}{26}{34/34}{}{0}}}
\@writefile{nav}{\headcommand {\beamer@framepages {34}{34}}}
\@writefile{toc}{\beamer@sectionintoc {5}{Mechanisms}{35}{0}{5}}
\@writefile{nav}{\headcommand {\sectionentry {5}{Mechanisms}{35}{Mechanisms}{0}}}
\@writefile{nav}{\headcommand {\beamer@sectionpages {29}{34}}}
\@writefile{nav}{\headcommand {\beamer@subsectionpages {29}{34}}}
\@writefile{nav}{\headcommand {\slideentry {5}{0}{27}{35/35}{}{0}}}
\@writefile{nav}{\headcommand {\beamer@framepages {35}{35}}}
\@writefile{nav}{\headcommand {\slideentry {5}{0}{28}{36/36}{}{0}}}
\@writefile{nav}{\headcommand {\beamer@framepages {36}{36}}}
\@writefile{toc}{\beamer@sectionintoc {6}{Heterogeneity}{37}{0}{6}}
\@writefile{nav}{\headcommand {\sectionentry {6}{Heterogeneity}{37}{Heterogeneity}{0}}}
\@writefile{nav}{\headcommand {\beamer@sectionpages {35}{36}}}
\@writefile{nav}{\headcommand {\beamer@subsectionpages {35}{36}}}
\@writefile{nav}{\headcommand {\slideentry {6}{0}{29}{37/37}{}{0}}}
\@writefile{nav}{\headcommand {\beamer@framepages {37}{37}}}
\@writefile{nav}{\headcommand {\slideentry {6}{0}{30}{38/38}{}{0}}}
\@writefile{nav}{\headcommand {\beamer@framepages {38}{38}}}
\@writefile{nav}{\headcommand {\slideentry {6}{0}{31}{39/39}{}{0}}}
\@writefile{nav}{\headcommand {\beamer@framepages {39}{39}}}
\newlabel{heter_math<1>}{{32}{40}{Heterogeneity}{Doc-Start}{}}
\@writefile{snm}{\beamer@slide {heter_math<1>}{40}}
\newlabel{heter_math}{{32}{40}{Heterogeneity}{Doc-Start}{}}
\@writefile{snm}{\beamer@slide {heter_math}{40}}
\@writefile{nav}{\headcommand {\slideentry {6}{0}{32}{40/40}{}{0}}}
\@writefile{nav}{\headcommand {\beamer@framepages {40}{40}}}
\newlabel{heter_swa<1>}{{33}{41}{Heterogeneity}{Doc-Start}{}}
\@writefile{snm}{\beamer@slide {heter_swa<1>}{41}}
\newlabel{heter_swa}{{33}{41}{Heterogeneity}{Doc-Start}{}}
\@writefile{snm}{\beamer@slide {heter_swa}{41}}
\@writefile{nav}{\headcommand {\slideentry {6}{0}{33}{41/41}{}{0}}}
\@writefile{nav}{\headcommand {\beamer@framepages {41}{41}}}
\newlabel{heter_eng<1>}{{34}{42}{Heterogeneity}{Doc-Start}{}}
\@writefile{snm}{\beamer@slide {heter_eng<1>}{42}}
\newlabel{heter_eng}{{34}{42}{Heterogeneity}{Doc-Start}{}}
\@writefile{snm}{\beamer@slide {heter_eng}{42}}
\@writefile{nav}{\headcommand {\slideentry {6}{0}{34}{42/42}{}{0}}}
\@writefile{nav}{\headcommand {\beamer@framepages {42}{42}}}
\@writefile{nav}{\headcommand {\slideentry {6}{0}{35}{43/43}{}{0}}}
\@writefile{nav}{\headcommand {\beamer@framepages {43}{43}}}
\@writefile{nav}{\headcommand {\partentry {\translate  {Appendix}}{1}}}
\@writefile{nav}{\headcommand {\beamer@partpages {1}{43}}}
\@writefile{nav}{\headcommand {\beamer@sectionpages {37}{43}}}
\@writefile{nav}{\headcommand {\beamer@subsectionpages {37}{43}}}
\@writefile{nav}{\headcommand {\beamer@appendixpages {44}}}
\newlabel{catexp<1>}{{36}{44}{Heterogeneity}{Doc-Start}{}}
\@writefile{snm}{\beamer@slide {catexp<1>}{44}}
\newlabel{catexp}{{36}{44}{Heterogeneity}{Doc-Start}{}}
\@writefile{snm}{\beamer@slide {catexp}{44}}
\@writefile{nav}{\headcommand {\slideentry {6}{0}{36}{44/44}{}{1}}}
\@writefile{nav}{\headcommand {\beamer@framepages {44}{44}}}
\newlabel{pedag<1>}{{37}{45}{Heterogeneity}{Doc-Start}{}}
\@writefile{snm}{\beamer@slide {pedag<1>}{45}}
\newlabel{pedag}{{37}{45}{Heterogeneity}{Doc-Start}{}}
\@writefile{snm}{\beamer@slide {pedag}{45}}
\@writefile{nav}{\headcommand {\slideentry {6}{0}{37}{45/45}{}{1}}}
\@writefile{nav}{\headcommand {\beamer@framepages {45}{45}}}
\newlabel{tchtime<1>}{{38}{46}{Heterogeneity}{Doc-Start}{}}
\@writefile{snm}{\beamer@slide {tchtime<1>}{46}}
\newlabel{tchtime}{{38}{46}{Heterogeneity}{Doc-Start}{}}
\@writefile{snm}{\beamer@slide {tchtime}{46}}
\@writefile{nav}{\headcommand {\slideentry {6}{0}{38}{46/46}{}{1}}}
\@writefile{nav}{\headcommand {\beamer@framepages {46}{46}}}
\newlabel{balanceschool_house<1>}{{39}{47}{Heterogeneity}{Doc-Start}{}}
\@writefile{snm}{\beamer@slide {balanceschool_house<1>}{47}}
\newlabel{balanceschool_house}{{39}{47}{Heterogeneity}{Doc-Start}{}}
\@writefile{snm}{\beamer@slide {balanceschool_house}{47}}
\@writefile{nav}{\headcommand {\slideentry {6}{0}{39}{47/47}{}{1}}}
\@writefile{nav}{\headcommand {\beamer@framepages {47}{47}}}
\newlabel{balance_student<1>}{{40}{48}{Heterogeneity}{Doc-Start}{}}
\@writefile{snm}{\beamer@slide {balance_student<1>}{48}}
\newlabel{balance_student}{{40}{48}{Heterogeneity}{Doc-Start}{}}
\@writefile{snm}{\beamer@slide {balance_student}{48}}
\@writefile{nav}{\headcommand {\slideentry {6}{0}{40}{48/48}{}{1}}}
\@writefile{nav}{\headcommand {\beamer@framepages {48}{48}}}
\newlabel{balance_teacher<1>}{{41}{49}{Heterogeneity}{Doc-Start}{}}
\@writefile{snm}{\beamer@slide {balance_teacher<1>}{49}}
\newlabel{balance_teacher}{{41}{49}{Heterogeneity}{Doc-Start}{}}
\@writefile{snm}{\beamer@slide {balance_teacher}{49}}
\@writefile{nav}{\headcommand {\slideentry {6}{0}{41}{49/49}{}{1}}}
\@writefile{nav}{\headcommand {\beamer@framepages {49}{49}}}
\newlabel{attrition<1>}{{42}{50}{Heterogeneity}{Doc-Start}{}}
\@writefile{snm}{\beamer@slide {attrition<1>}{50}}
\newlabel{attrition}{{42}{50}{Heterogeneity}{Doc-Start}{}}
\@writefile{snm}{\beamer@slide {attrition}{50}}
\@writefile{nav}{\headcommand {\slideentry {6}{0}{42}{50/50}{}{1}}}
\@writefile{nav}{\headcommand {\beamer@framepages {50}{50}}}
\newlabel{tot_exp<1>}{{43}{51}{Heterogeneity}{Doc-Start}{}}
\@writefile{snm}{\beamer@slide {tot_exp<1>}{51}}
\newlabel{tot_exp}{{43}{51}{Heterogeneity}{Doc-Start}{}}
\@writefile{snm}{\beamer@slide {tot_exp}{51}}
\@writefile{nav}{\headcommand {\slideentry {6}{0}{43}{51/51}{}{1}}}
\@writefile{nav}{\headcommand {\beamer@framepages {51}{51}}}
\newlabel{tot_sub<1>}{{44}{52}{Heterogeneity}{Doc-Start}{}}
\@writefile{snm}{\beamer@slide {tot_sub<1>}{52}}
\newlabel{tot_sub}{{44}{52}{Heterogeneity}{Doc-Start}{}}
\@writefile{snm}{\beamer@slide {tot_sub}{52}}
\@writefile{nav}{\headcommand {\slideentry {6}{0}{44}{52/52}{}{1}}}
\@writefile{nav}{\headcommand {\beamer@framepages {52}{52}}}
\newlabel{tot_HHexp<1>}{{45}{53}{Heterogeneity}{Doc-Start}{}}
\@writefile{snm}{\beamer@slide {tot_HHexp<1>}{53}}
\newlabel{tot_HHexp}{{45}{53}{Heterogeneity}{Doc-Start}{}}
\@writefile{snm}{\beamer@slide {tot_HHexp}{53}}
\@writefile{nav}{\headcommand {\slideentry {6}{0}{45}{53/53}{}{1}}}
\@writefile{nav}{\headcommand {\beamer@framepages {53}{53}}}
\newlabel{heter<1>}{{46}{54}{Heterogeneity}{Doc-Start}{}}
\@writefile{snm}{\beamer@slide {heter<1>}{54}}
\newlabel{heter}{{46}{54}{Heterogeneity}{Doc-Start}{}}
\@writefile{snm}{\beamer@slide {heter}{54}}
\@writefile{nav}{\headcommand {\slideentry {6}{0}{46}{54/54}{}{1}}}
\@writefile{nav}{\headcommand {\beamer@framepages {54}{54}}}
\@writefile{nav}{\headcommand {\slideentry {6}{0}{47}{55/55}{}{1}}}
\@writefile{nav}{\headcommand {\beamer@framepages {55}{55}}}
\@writefile{nav}{\headcommand {\slideentry {6}{0}{48}{56/56}{}{1}}}
\@writefile{nav}{\headcommand {\beamer@framepages {56}{56}}}
\@writefile{nav}{\headcommand {\slideentry {6}{0}{49}{57/57}{}{1}}}
\@writefile{nav}{\headcommand {\beamer@framepages {57}{57}}}
\@writefile{nav}{\headcommand {\beamer@partpages {44}{57}}}
\@writefile{nav}{\headcommand {\beamer@subsectionpages {44}{57}}}
\@writefile{nav}{\headcommand {\beamer@sectionpages {44}{57}}}
\@writefile{nav}{\headcommand {\beamer@documentpages {57}}}
\@writefile{nav}{\headcommand {\def \inserttotalframenumber {49}}}
